{
    "variables": [],
    "info": {
        "name": "Laravel API",
        "_postman_id": "3b9f4c30-80f6-405b-8b3f-ad6adef0f3a9",
        "description": "",
        "schema": "https:\/\/schema.getpostman.com\/json\/collection\/v2.0.0\/collection.json"
    },
    "item": [
        {
            "name": "Country",
            "description": "\nAPIs for managing general data",
            "item": [
                {
                    "name": "Lista de Paises",
                    "request": {
                        "url": {
                            "protocol": "https",
                            "host": "ec2-54-189-244-145.us-west-2.compute.amazonaws.com",
                            "path": "api\/country",
                            "query": []
                        },
                        "method": "GET",
                        "header": [
                            {
                                "key": "Content-Type",
                                "value": "application\/json"
                            },
                            {
                                "key": "Accept",
                                "value": "application\/json"
                            }
                        ],
                        "body": {
                            "mode": "raw",
                            "raw": "[]"
                        },
                        "description": "",
                        "response": []
                    }
                },
                {
                    "name": "Crear Pais",
                    "request": {
                        "url": {
                            "protocol": "https",
                            "host": "ec2-54-189-244-145.us-west-2.compute.amazonaws.com",
                            "path": "api\/country",
                            "query": []
                        },
                        "method": "POST",
                        "header": [
                            {
                                "key": "Content-Type",
                                "value": "application\/json"
                            },
                            {
                                "key": "Accept",
                                "value": "application\/json"
                            }
                        ],
                        "body": {
                            "mode": "raw",
                            "raw": "{\n    \"name\": \"ex\",\n    \"description\": \"consequatur\"\n}"
                        },
                        "description": "",
                        "response": []
                    }
                },
                {
                    "name": "Eliminar Pais",
                    "request": {
                        "url": {
                            "protocol": "https",
                            "host": "ec2-54-189-244-145.us-west-2.compute.amazonaws.com",
                            "path": "api\/country\/:id",
                            "query": []
                        },
                        "method": "DELETE",
                        "header": [
                            {
                                "key": "Content-Type",
                                "value": "application\/json"
                            },
                            {
                                "key": "Accept",
                                "value": "application\/json"
                            }
                        ],
                        "body": {
                            "mode": "raw",
                            "raw": "{\n    \"name\": \"voluptatem\",\n    \"description\": \"aut\"\n}"
                        },
                        "description": "",
                        "response": []
                    }
                }
            ]
        },
        {
            "name": "Lenguage",
            "description": "\nAPIs for managing general data",
            "item": [
                {
                    "name": "Lista de Lenguajes",
                    "request": {
                        "url": {
                            "protocol": "https",
                            "host": "ec2-54-189-244-145.us-west-2.compute.amazonaws.com",
                            "path": "api\/lenguage",
                            "query": []
                        },
                        "method": "GET",
                        "header": [
                            {
                                "key": "Content-Type",
                                "value": "application\/json"
                            },
                            {
                                "key": "Accept",
                                "value": "application\/json"
                            }
                        ],
                        "body": {
                            "mode": "raw",
                            "raw": "[]"
                        },
                        "description": "",
                        "response": []
                    }
                },
                {
                    "name": "Crear Lenguaje de Programacion",
                    "request": {
                        "url": {
                            "protocol": "https",
                            "host": "ec2-54-189-244-145.us-west-2.compute.amazonaws.com",
                            "path": "api\/lenguage",
                            "query": []
                        },
                        "method": "POST",
                        "header": [
                            {
                                "key": "Content-Type",
                                "value": "application\/json"
                            },
                            {
                                "key": "Accept",
                                "value": "application\/json"
                            }
                        ],
                        "body": {
                            "mode": "raw",
                            "raw": "{\n    \"name\": \"qui\",\n    \"description\": \"et\",\n    \"slug\": \"qui\",\n    \"status\": 2,\n    \"backend\": false,\n    \"frontend\": true,\n    \"type\": \"fugit\"\n}"
                        },
                        "description": "",
                        "response": []
                    }
                },
                {
                    "name": "Eliminar Lenguage",
                    "request": {
                        "url": {
                            "protocol": "https",
                            "host": "ec2-54-189-244-145.us-west-2.compute.amazonaws.com",
                            "path": "api\/lenguage\/:id",
                            "query": []
                        },
                        "method": "DELETE",
                        "header": [
                            {
                                "key": "Content-Type",
                                "value": "application\/json"
                            },
                            {
                                "key": "Accept",
                                "value": "application\/json"
                            }
                        ],
                        "body": {
                            "mode": "raw",
                            "raw": "[]"
                        },
                        "description": "",
                        "response": []
                    }
                }
            ]
        },
        {
            "name": "general",
            "description": "",
            "item": [
                {
                    "name": "Display a listing of the resource.",
                    "request": {
                        "url": {
                            "protocol": "https",
                            "host": "ec2-54-189-244-145.us-west-2.compute.amazonaws.com",
                            "path": "auth",
                            "query": []
                        },
                        "method": "GET",
                        "header": [
                            {
                                "key": "Content-Type",
                                "value": "application\/json"
                            },
                            {
                                "key": "Accept",
                                "value": "application\/json"
                            }
                        ],
                        "body": {
                            "mode": "raw",
                            "raw": "[]"
                        },
                        "description": "",
                        "response": []
                    }
                },
                {
                    "name": "Display a listing of the resource.",
                    "request": {
                        "url": {
                            "protocol": "https",
                            "host": "ec2-54-189-244-145.us-west-2.compute.amazonaws.com",
                            "path": "api\/developers",
                            "query": []
                        },
                        "method": "GET",
                        "header": [
                            {
                                "key": "Content-Type",
                                "value": "application\/json"
                            },
                            {
                                "key": "Accept",
                                "value": "application\/json"
                            }
                        ],
                        "body": {
                            "mode": "raw",
                            "raw": "[]"
                        },
                        "description": "",
                        "response": []
                    }
                },
                {
                    "name": "Show the specified resource.",
                    "request": {
                        "url": {
                            "protocol": "https",
                            "host": "ec2-54-189-244-145.us-west-2.compute.amazonaws.com",
                            "path": "api\/developers\/:id",
                            "query": []
                        },
                        "method": "GET",
                        "header": [
                            {
                                "key": "Content-Type",
                                "value": "application\/json"
                            },
                            {
                                "key": "Accept",
                                "value": "application\/json"
                            }
                        ],
                        "body": {
                            "mode": "raw",
                            "raw": "[]"
                        },
                        "description": "",
                        "response": []
                    }
                },
                {
                    "name": "Store a newly created resource in storage.",
                    "request": {
                        "url": {
                            "protocol": "https",
                            "host": "ec2-54-189-244-145.us-west-2.compute.amazonaws.com",
                            "path": "api\/developer",
                            "query": []
                        },
                        "method": "POST",
                        "header": [
                            {
                                "key": "Content-Type",
                                "value": "application\/json"
                            },
                            {
                                "key": "Accept",
                                "value": "application\/json"
                            }
                        ],
                        "body": {
                            "mode": "raw",
                            "raw": "[]"
                        },
                        "description": "",
                        "response": []
                    }
                },
                {
                    "name": "Generate a pdf with information of the developer",
                    "request": {
                        "url": {
                            "protocol": "https",
                            "host": "ec2-54-189-244-145.us-west-2.compute.amazonaws.com",
                            "path": "api\/developers\/cv\/:id",
                            "query": []
                        },
                        "method": "GET",
                        "header": [
                            {
                                "key": "Content-Type",
                                "value": "application\/json"
                            },
                            {
                                "key": "Accept",
                                "value": "application\/json"
                            }
                        ],
                        "body": {
                            "mode": "raw",
                            "raw": "[]"
                        },
                        "description": "",
                        "response": []
                    }
                },
                {
                    "name": "Display a listing of the resource.",
                    "request": {
                        "url": {
                            "protocol": "https",
                            "host": "ec2-54-189-244-145.us-west-2.compute.amazonaws.com",
                            "path": "developer",
                            "query": []
                        },
                        "method": "GET",
                        "header": [
                            {
                                "key": "Content-Type",
                                "value": "application\/json"
                            },
                            {
                                "key": "Accept",
                                "value": "application\/json"
                            }
                        ],
                        "body": {
                            "mode": "raw",
                            "raw": "[]"
                        },
                        "description": "",
                        "response": []
                    }
                },
                {
                    "name": "Display a listing of the Departments.",
                    "request": {
                        "url": {
                            "protocol": "https",
                            "host": "ec2-54-189-244-145.us-west-2.compute.amazonaws.com",
                            "path": "api\/departments\/:id",
                            "query": []
                        },
                        "method": "GET",
                        "header": [
                            {
                                "key": "Content-Type",
                                "value": "application\/json"
                            },
                            {
                                "key": "Accept",
                                "value": "application\/json"
                            }
                        ],
                        "body": {
                            "mode": "raw",
                            "raw": "[]"
                        },
                        "description": "",
                        "response": []
                    }
                },
                {
                    "name": "Display a listing of the Cities.",
                    "request": {
                        "url": {
                            "protocol": "https",
                            "host": "ec2-54-189-244-145.us-west-2.compute.amazonaws.com",
                            "path": "api\/cities\/:id",
                            "query": []
                        },
                        "method": "GET",
                        "header": [
                            {
                                "key": "Content-Type",
                                "value": "application\/json"
                            },
                            {
                                "key": "Accept",
                                "value": "application\/json"
                            }
                        ],
                        "body": {
                            "mode": "raw",
                            "raw": "[]"
                        },
                        "description": "",
                        "response": []
                    }
                },
                {
                    "name": "Display a listing of the Cities.",
                    "request": {
                        "url": {
                            "protocol": "https",
                            "host": "ec2-54-189-244-145.us-west-2.compute.amazonaws.com",
                            "path": "api\/cities",
                            "query": []
                        },
                        "method": "POST",
                        "header": [
                            {
                                "key": "Content-Type",
                                "value": "application\/json"
                            },
                            {
                                "key": "Accept",
                                "value": "application\/json"
                            }
                        ],
                        "body": {
                            "mode": "raw",
                            "raw": "[]"
                        },
                        "description": "",
                        "response": []
                    }
                },
                {
                    "name": "Display a listing of the Frameworks.",
                    "request": {
                        "url": {
                            "protocol": "https",
                            "host": "ec2-54-189-244-145.us-west-2.compute.amazonaws.com",
                            "path": "api\/frameworks",
                            "query": []
                        },
                        "method": "GET",
                        "header": [
                            {
                                "key": "Content-Type",
                                "value": "application\/json"
                            },
                            {
                                "key": "Accept",
                                "value": "application\/json"
                            }
                        ],
                        "body": {
                            "mode": "raw",
                            "raw": "[]"
                        },
                        "description": "",
                        "response": []
                    }
                },
                {
                    "name": "Display a listing of the resource.",
                    "request": {
                        "url": {
                            "protocol": "https",
                            "host": "ec2-54-189-244-145.us-west-2.compute.amazonaws.com",
                            "path": "generaldata",
                            "query": []
                        },
                        "method": "GET",
                        "header": [
                            {
                                "key": "Content-Type",
                                "value": "application\/json"
                            },
                            {
                                "key": "Accept",
                                "value": "application\/json"
                            }
                        ],
                        "body": {
                            "mode": "raw",
                            "raw": "[]"
                        },
                        "description": "",
                        "response": []
                    }
                },
                {
                    "name": "Display a listing of the resource.",
                    "request": {
                        "url": {
                            "protocol": "https",
                            "host": "ec2-54-189-244-145.us-west-2.compute.amazonaws.com",
                            "path": "user",
                            "query": []
                        },
                        "method": "GET",
                        "header": [
                            {
                                "key": "Content-Type",
                                "value": "application\/json"
                            },
                            {
                                "key": "Accept",
                                "value": "application\/json"
                            }
                        ],
                        "body": {
                            "mode": "raw",
                            "raw": "[]"
                        },
                        "description": "",
                        "response": []
                    }
                }
            ]
        }
    ]
}