{
    "name": "GeneralData",
    "alias": "generaldata",
    "description": "",
    "keywords": [],
    "order": 0,
    "providers": [
        "Modules\\GeneralData\\Providers\\GeneralDataServiceProvider"
    ],
    "aliases": {},
    "files": [],
    "requires": []
}
